2011.05.03 15:35 B C:\Inetpub\wwwroot\budget_ash\PEAR\OLE\ChainedBlockStream.php --> www.infotechconsultants.co.in /httpdocs/janjaati/PEAR/OLE ChainedBlockStream.php
2011.05.03 15:35 B C:\Inetpub\wwwroot\budget_ash\PEAR\OLE\PPS.php --> www.infotechconsultants.co.in /httpdocs/janjaati/PEAR/OLE PPS.php
2011.06.18 20:01 B C:\Inetpub\wwwroot\gbkcfashions-latest\PEAR\OLE\ChainedBlockStream.php --> www.gbkcfashions.com /subdomains/apps/httpdocs/PEAR/OLE ChainedBlockStream.php
2011.06.18 20:01 B C:\Inetpub\wwwroot\gbkcfashions-latest\PEAR\OLE\PPS.php --> www.gbkcfashions.com /subdomains/apps/httpdocs/PEAR/OLE PPS.php
2011.06.18 20:01 B C:\Inetpub\wwwroot\gbkcfashions-latest\PEAR\OLE\WS_FTP.LOG --> www.gbkcfashions.com /subdomains/apps/httpdocs/PEAR/OLE WS_FTP.LOG
