2011.05.03 15:43 B C:\Inetpub\wwwroot\budget_ash\PEAR\PEAR\Autoloader.php --> www.infotechconsultants.co.in /httpdocs/janjaati/PEAR/PEAR Autoloader.php
2011.05.03 15:43 B C:\Inetpub\wwwroot\budget_ash\PEAR\PEAR\Builder.php --> www.infotechconsultants.co.in /httpdocs/janjaati/PEAR/PEAR Builder.php
2011.05.03 15:43 B C:\Inetpub\wwwroot\budget_ash\PEAR\PEAR\ChannelFile.php --> www.infotechconsultants.co.in /httpdocs/janjaati/PEAR/PEAR ChannelFile.php
2011.05.03 15:43 B C:\Inetpub\wwwroot\budget_ash\PEAR\PEAR\Command.php --> www.infotechconsultants.co.in /httpdocs/janjaati/PEAR/PEAR Command.php
2011.05.03 15:43 B C:\Inetpub\wwwroot\budget_ash\PEAR\PEAR\Common.php --> www.infotechconsultants.co.in /httpdocs/janjaati/PEAR/PEAR Common.php
2011.05.03 15:43 B C:\Inetpub\wwwroot\budget_ash\PEAR\PEAR\Config.php --> www.infotechconsultants.co.in /httpdocs/janjaati/PEAR/PEAR Config.php
2011.05.03 15:43 B C:\Inetpub\wwwroot\budget_ash\PEAR\PEAR\Dependency.php --> www.infotechconsultants.co.in /httpdocs/janjaati/PEAR/PEAR Dependency.php
2011.05.03 15:43 B C:\Inetpub\wwwroot\budget_ash\PEAR\PEAR\Dependency2.php --> www.infotechconsultants.co.in /httpdocs/janjaati/PEAR/PEAR Dependency2.php
2011.05.03 15:43 B C:\Inetpub\wwwroot\budget_ash\PEAR\PEAR\DependencyDB.php --> www.infotechconsultants.co.in /httpdocs/janjaati/PEAR/PEAR DependencyDB.php
2011.05.03 15:43 B C:\Inetpub\wwwroot\budget_ash\PEAR\PEAR\Downloader.php --> www.infotechconsultants.co.in /httpdocs/janjaati/PEAR/PEAR Downloader.php
2011.05.03 15:44 B C:\Inetpub\wwwroot\budget_ash\PEAR\PEAR\ErrorStack.php --> www.infotechconsultants.co.in /httpdocs/janjaati/PEAR/PEAR ErrorStack.php
2011.05.03 15:44 B C:\Inetpub\wwwroot\budget_ash\PEAR\PEAR\Exception.php --> www.infotechconsultants.co.in /httpdocs/janjaati/PEAR/PEAR Exception.php
2011.05.03 15:44 B C:\Inetpub\wwwroot\budget_ash\PEAR\PEAR\Frontend.php --> www.infotechconsultants.co.in /httpdocs/janjaati/PEAR/PEAR Frontend.php
2011.05.03 15:44 B C:\Inetpub\wwwroot\budget_ash\PEAR\PEAR\Installer.php --> www.infotechconsultants.co.in /httpdocs/janjaati/PEAR/PEAR Installer.php
2011.05.03 15:44 B C:\Inetpub\wwwroot\budget_ash\PEAR\PEAR\PackageFile.php --> www.infotechconsultants.co.in /httpdocs/janjaati/PEAR/PEAR PackageFile.php
2011.05.03 15:44 B C:\Inetpub\wwwroot\budget_ash\PEAR\PEAR\Packager.php --> www.infotechconsultants.co.in /httpdocs/janjaati/PEAR/PEAR Packager.php
2011.05.03 15:44 B C:\Inetpub\wwwroot\budget_ash\PEAR\PEAR\Registry.php --> www.infotechconsultants.co.in /httpdocs/janjaati/PEAR/PEAR Registry.php
2011.05.03 15:44 B C:\Inetpub\wwwroot\budget_ash\PEAR\PEAR\Remote.php --> www.infotechconsultants.co.in /httpdocs/janjaati/PEAR/PEAR Remote.php
2011.05.03 15:44 B C:\Inetpub\wwwroot\budget_ash\PEAR\PEAR\REST.php --> www.infotechconsultants.co.in /httpdocs/janjaati/PEAR/PEAR REST.php
2011.05.03 15:44 B C:\Inetpub\wwwroot\budget_ash\PEAR\PEAR\RunTest.php --> www.infotechconsultants.co.in /httpdocs/janjaati/PEAR/PEAR RunTest.php
2011.05.03 15:44 B C:\Inetpub\wwwroot\budget_ash\PEAR\PEAR\Validate.php --> www.infotechconsultants.co.in /httpdocs/janjaati/PEAR/PEAR Validate.php
2011.05.03 15:44 B C:\Inetpub\wwwroot\budget_ash\PEAR\PEAR\XMLParser.php --> www.infotechconsultants.co.in /httpdocs/janjaati/PEAR/PEAR XMLParser.php
2011.06.18 20:08 B C:\Inetpub\wwwroot\gbkcfashions-latest\PEAR\PEAR\Autoloader.php --> www.gbkcfashions.com /subdomains/apps/httpdocs/PEAR/PEAR Autoloader.php
2011.06.18 20:08 B C:\Inetpub\wwwroot\gbkcfashions-latest\PEAR\PEAR\Builder.php --> www.gbkcfashions.com /subdomains/apps/httpdocs/PEAR/PEAR Builder.php
2011.06.18 20:08 B C:\Inetpub\wwwroot\gbkcfashions-latest\PEAR\PEAR\ChannelFile.php --> www.gbkcfashions.com /subdomains/apps/httpdocs/PEAR/PEAR ChannelFile.php
2011.06.18 20:08 B C:\Inetpub\wwwroot\gbkcfashions-latest\PEAR\PEAR\Command.php --> www.gbkcfashions.com /subdomains/apps/httpdocs/PEAR/PEAR Command.php
2011.06.18 20:08 B C:\Inetpub\wwwroot\gbkcfashions-latest\PEAR\PEAR\Common.php --> www.gbkcfashions.com /subdomains/apps/httpdocs/PEAR/PEAR Common.php
2011.06.18 20:09 B C:\Inetpub\wwwroot\gbkcfashions-latest\PEAR\PEAR\Config.php --> www.gbkcfashions.com /subdomains/apps/httpdocs/PEAR/PEAR Config.php
2011.06.18 20:09 B C:\Inetpub\wwwroot\gbkcfashions-latest\PEAR\PEAR\Dependency.php --> www.gbkcfashions.com /subdomains/apps/httpdocs/PEAR/PEAR Dependency.php
2011.06.18 20:09 B C:\Inetpub\wwwroot\gbkcfashions-latest\PEAR\PEAR\Dependency2.php --> www.gbkcfashions.com /subdomains/apps/httpdocs/PEAR/PEAR Dependency2.php
2011.06.18 20:09 B C:\Inetpub\wwwroot\gbkcfashions-latest\PEAR\PEAR\DependencyDB.php --> www.gbkcfashions.com /subdomains/apps/httpdocs/PEAR/PEAR DependencyDB.php
2011.06.18 20:09 B C:\Inetpub\wwwroot\gbkcfashions-latest\PEAR\PEAR\Downloader.php --> www.gbkcfashions.com /subdomains/apps/httpdocs/PEAR/PEAR Downloader.php
2011.06.18 20:09 B C:\Inetpub\wwwroot\gbkcfashions-latest\PEAR\PEAR\ErrorStack.php --> www.gbkcfashions.com /subdomains/apps/httpdocs/PEAR/PEAR ErrorStack.php
2011.06.18 20:09 B C:\Inetpub\wwwroot\gbkcfashions-latest\PEAR\PEAR\Exception.php --> www.gbkcfashions.com /subdomains/apps/httpdocs/PEAR/PEAR Exception.php
2011.06.18 20:09 B C:\Inetpub\wwwroot\gbkcfashions-latest\PEAR\PEAR\Frontend.php --> www.gbkcfashions.com /subdomains/apps/httpdocs/PEAR/PEAR Frontend.php
2011.06.18 20:09 B C:\Inetpub\wwwroot\gbkcfashions-latest\PEAR\PEAR\Installer.php --> www.gbkcfashions.com /subdomains/apps/httpdocs/PEAR/PEAR Installer.php
2011.06.18 20:09 B C:\Inetpub\wwwroot\gbkcfashions-latest\PEAR\PEAR\PackageFile.php --> www.gbkcfashions.com /subdomains/apps/httpdocs/PEAR/PEAR PackageFile.php
2011.06.18 20:09 B C:\Inetpub\wwwroot\gbkcfashions-latest\PEAR\PEAR\Packager.php --> www.gbkcfashions.com /subdomains/apps/httpdocs/PEAR/PEAR Packager.php
2011.06.18 20:09 B C:\Inetpub\wwwroot\gbkcfashions-latest\PEAR\PEAR\Registry.php --> www.gbkcfashions.com /subdomains/apps/httpdocs/PEAR/PEAR Registry.php
2011.06.18 20:09 B C:\Inetpub\wwwroot\gbkcfashions-latest\PEAR\PEAR\Remote.php --> www.gbkcfashions.com /subdomains/apps/httpdocs/PEAR/PEAR Remote.php
2011.06.18 20:09 B C:\Inetpub\wwwroot\gbkcfashions-latest\PEAR\PEAR\REST.php --> www.gbkcfashions.com /subdomains/apps/httpdocs/PEAR/PEAR REST.php
2011.06.18 20:09 B C:\Inetpub\wwwroot\gbkcfashions-latest\PEAR\PEAR\RunTest.php --> www.gbkcfashions.com /subdomains/apps/httpdocs/PEAR/PEAR RunTest.php
2011.06.18 20:10 B C:\Inetpub\wwwroot\gbkcfashions-latest\PEAR\PEAR\Validate.php --> www.gbkcfashions.com /subdomains/apps/httpdocs/PEAR/PEAR Validate.php
2011.06.18 20:10 B C:\Inetpub\wwwroot\gbkcfashions-latest\PEAR\PEAR\WS_FTP.LOG --> www.gbkcfashions.com /subdomains/apps/httpdocs/PEAR/PEAR WS_FTP.LOG
2011.06.18 20:10 B C:\Inetpub\wwwroot\gbkcfashions-latest\PEAR\PEAR\XMLParser.php --> www.gbkcfashions.com /subdomains/apps/httpdocs/PEAR/PEAR XMLParser.php
