2011.05.03 15:42 B C:\Inetpub\wwwroot\budget_ash\PEAR\PEAR\Task\Windowseol\rw.php --> www.infotechconsultants.co.in /httpdocs/janjaati/PEAR/PEAR/Task/Windowseol rw.php
2011.06.18 20:07 B C:\Inetpub\wwwroot\gbkcfashions-latest\PEAR\PEAR\Task\Windowseol\rw.php --> www.gbkcfashions.com /subdomains/apps/httpdocs/PEAR/PEAR/Task/Windowseol rw.php
2011.06.18 20:08 B C:\Inetpub\wwwroot\gbkcfashions-latest\PEAR\PEAR\Task\Windowseol\WS_FTP.LOG --> www.gbkcfashions.com /subdomains/apps/httpdocs/PEAR/PEAR/Task/Windowseol WS_FTP.LOG
